<?xml version="1.0" encoding="UTF-8" standalone="no"?>
<svg
   xmlns:dc="http://purl.org/dc/elements/1.1/"
   xmlns:cc="http://creativecommons.org/ns#"
   xmlns:rdf="http://www.w3.org/1999/02/22-rdf-syntax-ns#"
   xmlns:svg="http://www.w3.org/2000/svg"
   xmlns="http://www.w3.org/2000/svg"
   xmlns:sodipodi="http://sodipodi.sourceforge.net/DTD/sodipodi-0.dtd"
   xmlns:inkscape="http://www.inkscape.org/namespaces/inkscape"
   height="35"
   width="35"
   id="svg18"
   xml:space="preserve"
   enable-background="new 0 0 1000 1000"
   viewBox="0 0 35 35"
   y="0px"
   x="0px"
   version="1.1"
   sodipodi:docname="speed-white.svg"
   inkscape:version="0.92.4 (unknown)"><sodipodi:namedview
   pagecolor="#ffffff"
   bordercolor="#666666"
   borderopacity="1"
   objecttolerance="10"
   gridtolerance="10"
   guidetolerance="10"
   inkscape:pageopacity="0"
   inkscape:pageshadow="2"
   inkscape:window-width="1600"
   inkscape:window-height="811"
   id="namedview12"
   showgrid="false"
   inkscape:pagecheckerboard="true"
   inkscape:zoom="6.7428571"
   inkscape:cx="11.493644"
   inkscape:cy="17.5"
   inkscape:window-x="0"
   inkscape:window-y="24"
   inkscape:window-maximized="1"
   inkscape:current-layer="svg18" /><defs
   id="defs22" />
<metadata
   id="metadata2"> Svg Vector Icons : http://www.onlinewebfonts.com/icon <rdf:RDF><cc:Work
     rdf:about=""><dc:format>image/svg+xml</dc:format><dc:type
       rdf:resource="http://purl.org/dc/dcmitype/StillImage" /><dc:title></dc:title></cc:Work></rdf:RDF></metadata>
<g
   transform="matrix(0.03563994,0,0,0.03563994,-0.34377455,-0.42540042)"
   id="g16"
   style="fill:#ffffff;fill-opacity:1"><path
     id="path4"
     d="m 886.2,367.1 c 43.9,0 79.5,-35.6 79.5,-79.4 0,-43.9 -35.6,-79.5 -79.5,-79.5 -43.9,0 -79.4,35.6 -79.4,79.5 0,43.8 35.6,79.4 79.4,79.4 z"
     style="fill:#ffffff;fill-opacity:1" /><path
     id="path6"
     d="M 960.9,477.6 845.4,472.3 806.2,371.5 C 799.6,354.6 670.7,205.8 659,192 c -6.4,-7.5 -15.9,-12 -26.4,-11.7 l -159.1,5 c -15.9,0.6 -28.9,13.3 -29.5,29.5 -0.6,16.8 12.6,31 29.5,31.6 l 140.5,5 37.7,51.3 c -25.5,23.8 -91.8,85.7 -168.1,157 -11.8,10.8 -18,27.6 -18.4,41 -0.6,23 14,51.7 39.3,84.8 30.6,40.1 72.8,80.7 88.2,98.5 l -154.1,44.5 c -20.2,5.9 -33,26.5 -28.6,47.5 4.6,22 26.2,36.2 48.2,31.6 l 234.7,-48.9 c 34.7,-7.4 50.1,-48 29.2,-76.3 C 712,668.8 631.5,559.8 617.9,541.2 l 129.4,-95.6 c 1.9,3.7 38.4,77 40.2,80.7 5.9,11.8 18.3,19.6 32.3,19 l 141.3,-6.4 c 15.5,-0.8 28.3,-13.3 29.1,-29.1 0.6,-17.2 -12.5,-31.5 -29.3,-32.2 z"
     style="fill:#ffffff;fill-opacity:1" /><path
     id="path8"
     d="m 421.9,517.4 c -15,14 -260.6,217.1 -276.4,230.3 -16.6,13.8 -19.7,38.5 -6.6,55.9 13.6,18 39.1,21.6 57.1,8 0,0 129.3,-97.4 264,-198.8 -18.4,-23.8 -39.1,-57.3 -38.1,-95.4 z"
     style="fill:#ffffff;fill-opacity:1" /><path
     id="path10"
     d="m 475.9,393.5 -258,-18.1 v -37.7 l 258,-18.1 z"
     style="fill:#ffffff;fill-opacity:1" /><path
     id="path12"
     d="M 354,505.6 96,487.6 V 449.9 L 354,431.8 Z"
     style="fill:#ffffff;fill-opacity:1" /><path
     id="path14"
     d="M 268,617.8 10,599.7 V 562 l 258,-18 z"
     style="fill:#ffffff;fill-opacity:1" /></g>
</svg>