[gd_resource type="ProceduralSky" format=2]

[resource]
sky_top_color = Color( 0.2, 0.337255, 0.568627, 1 )
sky_curve = 0.2
ground_bottom_color = Color( 0, 0, 0, 1 )
ground_horizon_color = Color( 0.839216, 0.917647, 0.980392, 1 )
ground_curve = 0.2
sun_latitude = 60.0
