[gd_scene load_steps=4 format=2]

[sub_resource type="SpatialMaterial" id=1]
albedo_color = Color( 0.560784, 0.32549, 0.0196078, 1 )
metallic_specular = 0.0

[sub_resource type="CubeMesh" id=2]
material = SubResource( 1 )
size = Vector3( 0.5, 5, 0.5 )

[sub_resource type="BoxShape" id=3]
extents = Vector3( 0.25, 2.5, 0.25 )

[node name="Spatial" type="Spatial"]

[node name="Trunk" type="MeshInstance" parent="."]
transform = Transform( 1, 0, 0, 0, 1, 0, 0, 0, 1, 0, 2, 0 )
layers = 2
mesh = SubResource( 2 )
material/0 = null

[node name="StaticBody" type="StaticBody" parent="Trunk"]
collision_layer = 2
collision_mask = 29

[node name="CollisionShape" type="CollisionShape" parent="Trunk/StaticBody"]
shape = SubResource( 3 )
