[gd_resource type="Environment" load_steps=2 format=2]

[ext_resource path="res://assets/environment/sky/black.tres" type="ProceduralSky" id=1]

[resource]
background_mode = 1
background_sky = ExtResource( 1 )
ambient_light_sky_contribution = 0.5
fog_enabled = true
fog_color = Color( 0, 0, 0, 1 )
fog_sun_color = Color( 1, 1, 1, 1 )
fog_depth_end = 1000.0
