<svg height="41" width="41" viewBox="-41 -41 82 82" xmlns="http://www.w3.org/2000/svg">
	<rect width="4" height="33" x="-2" y="-41" fill="#ffffff" fill-opacity="1.0" />
	<rect width="4" height="33" x="-2" y="8" fill="#ffffff" fill-opacity="1.0" />
	<rect width="33" height="4" x="-41" y="-2" fill="#ffffff" fill-opacity="1.0" />
	<rect width="33" height="4" x="8" y="-2" fill="#ffffff" fill-opacity="1.0" />
</svg>
