[gd_scene load_steps=4 format=2]

[sub_resource type="Image" id=3]
data = {
"data": PoolByteArray( 0, 0, 0, 0, 0, 0, 0, 0, 0, 0, 0, 0, 0, 0, 0, 0, 229, 153, 153, 0, 250, 155, 155, 0, 250, 155, 155, 0, 251, 155, 155, 0, 172, 180, 234, 0, 184, 175, 221, 0, 193, 171, 212, 0, 191, 153, 191, 0, 0, 0, 0, 0, 0, 0, 0, 0, 0, 0, 0, 0, 0, 0, 0, 0, 0, 0, 0, 0, 0, 0, 0, 0, 0, 0, 0, 0, 239, 152, 152, 0, 229, 153, 153, 10, 250, 155, 155, 123, 250, 155, 155, 177, 251, 155, 155, 228, 172, 180, 234, 252, 184, 175, 221, 231, 193, 171, 212, 187, 191, 153, 191, 20, 194, 160, 197, 0, 0, 0, 0, 0, 0, 0, 0, 0, 0, 0, 0, 0, 0, 0, 0, 0, 0, 0, 0, 0, 250, 153, 153, 0, 250, 152, 152, 62, 251, 155, 155, 220, 251, 155, 155, 254, 251, 155, 155, 254, 251, 155, 155, 254, 165, 183, 243, 255, 165, 183, 243, 255, 165, 183, 243, 255, 174, 178, 231, 250, 198, 168, 203, 109, 199, 169, 204, 0, 0, 0, 0, 0, 0, 0, 0, 0, 0, 0, 0, 0, 239, 153, 153, 0, 250, 154, 154, 61, 251, 155, 155, 253, 251, 155, 155, 254, 250, 155, 155, 184, 251, 155, 155, 236, 251, 155, 155, 224, 173, 179, 233, 251, 170, 181, 236, 253, 182, 176, 223, 236, 165, 183, 243, 255, 164, 182, 242, 254, 200, 170, 205, 108, 195, 161, 198, 0, 0, 0, 0, 0, 229, 153, 153, 0, 229, 153, 153, 10, 251, 154, 154, 219, 251, 155, 155, 254, 250, 154, 154, 124, 249, 153, 153, 50, 251, 155, 155, 254, 250, 154, 154, 109, 195, 171, 210, 171, 165, 183, 243, 255, 201, 168, 201, 91, 192, 172, 213, 189, 165, 183, 243, 255, 175, 179, 231, 249, 191, 153, 191, 20, 191, 153, 191, 0, 250, 154, 154, 0, 250, 154, 154, 117, 251, 155, 155, 254, 250, 155, 155, 182, 250, 154, 154, 0, 251, 154, 154, 150, 251, 155, 155, 235, 223, 127, 127, 8, 175, 143, 175, 16, 170, 180, 235, 253, 188, 174, 216, 212, 187, 173, 217, 0, 182, 175, 223, 235, 165, 183, 243, 255, 194, 172, 212, 180, 194, 172, 212, 0, 250, 155, 155, 0, 250, 155, 155, 174, 251, 155, 155, 254, 251, 154, 154, 66, 249, 152, 152, 0, 251, 155, 155, 199, 250, 154, 154, 186, 236, 140, 140, 0, 178, 160, 199, 0, 182, 177, 224, 236, 179, 177, 226, 242, 192, 170, 210, 0, 198, 168, 203, 118, 165, 183, 243, 255, 184, 175, 221, 229, 184, 175, 221, 0, 251, 155, 155, 0, 251, 155, 155, 224, 251, 155, 155, 254, 249, 155, 155, 100, 246, 149, 149, 29, 251, 155, 155, 234, 251, 155, 155, 146, 251, 155, 155, 0, 184, 175, 221, 0, 190, 174, 216, 208, 170, 179, 234, 253, 201, 165, 201, 71, 195, 171, 209, 168, 165, 183, 243, 255, 173, 179, 233, 251, 173, 179, 233, 0, 251, 155, 155, 0, 251, 155, 155, 229, 251, 155, 155, 254, 251, 155, 155, 254, 251, 155, 155, 254, 251, 155, 155, 254, 251, 155, 155, 228, 251, 155, 155, 203, 179, 177, 227, 244, 172, 180, 234, 252, 165, 183, 243, 255, 165, 183, 243, 255, 165, 183, 243, 255, 165, 183, 243, 255, 173, 179, 233, 251, 173, 179, 233, 0, 250, 155, 155, 0, 250, 155, 155, 179, 251, 155, 155, 254, 250, 155, 155, 125, 250, 154, 154, 104, 251, 155, 155, 229, 251, 155, 155, 243, 251, 155, 155, 167, 178, 176, 227, 228, 172, 180, 234, 252, 174, 178, 231, 250, 197, 170, 206, 147, 192, 172, 212, 185, 165, 183, 243, 255, 183, 175, 222, 232, 183, 175, 222, 0, 250, 154, 154, 0, 250, 154, 154, 122, 251, 155, 155, 254, 251, 155, 155, 208, 250, 154, 154, 0, 251, 154, 154, 129, 251, 155, 155, 245, 241, 147, 147, 19, 192, 165, 199, 37, 166, 181, 239, 254, 193, 173, 213, 190, 0, 0, 0, 1, 177, 177, 229, 246, 165, 183, 243, 255, 193, 172, 212, 186, 193, 172, 212, 0, 229, 153, 153, 0, 229, 153, 153, 10, 251, 155, 155, 221, 251, 155, 155, 254, 251, 155, 155, 139, 249, 154, 154, 43, 251, 155, 155, 254, 250, 155, 155, 120, 192, 172, 212, 185, 165, 183, 243, 255, 200, 167, 200, 79, 190, 173, 215, 201, 165, 183, 243, 255, 174, 178, 231, 250, 191, 153, 191, 20, 191, 153, 191, 0, 0, 0, 0, 0, 239, 153, 153, 0, 250, 153, 153, 63, 251, 155, 155, 253, 251, 155, 155, 254, 251, 155, 155, 208, 251, 155, 155, 234, 251, 155, 155, 227, 172, 179, 234, 251, 171, 180, 235, 253, 177, 177, 229, 246, 165, 183, 243, 255, 164, 182, 242, 254, 199, 167, 202, 111, 195, 160, 196, 0, 0, 0, 0, 0, 0, 0, 0, 0, 0, 0, 0, 0, 250, 153, 153, 0, 250, 153, 153, 63, 251, 155, 155, 221, 251, 155, 155, 254, 251, 155, 155, 254, 251, 155, 155, 254, 165, 183, 243, 255, 165, 183, 243, 255, 165, 183, 243, 255, 174, 178, 231, 250, 198, 168, 203, 109, 198, 167, 202, 0, 0, 0, 0, 0, 0, 0, 0, 0, 0, 0, 0, 0, 0, 0, 0, 0, 0, 0, 0, 0, 239, 153, 153, 0, 229, 153, 153, 10, 250, 155, 155, 123, 250, 155, 155, 177, 251, 155, 155, 228, 172, 180, 234, 252, 184, 175, 221, 231, 193, 171, 212, 187, 191, 153, 191, 20, 194, 160, 197, 0, 0, 0, 0, 0, 0, 0, 0, 0, 0, 0, 0, 0, 0, 0, 0, 0, 0, 0, 0, 0, 0, 0, 0, 0, 0, 0, 0, 0, 229, 153, 153, 0, 250, 155, 155, 0, 250, 155, 155, 0, 251, 155, 155, 0, 172, 180, 234, 0, 184, 175, 221, 0, 193, 171, 212, 0, 191, 153, 191, 0, 0, 0, 0, 0, 0, 0, 0, 0, 0, 0, 0, 0, 0, 0, 0, 0 ),
"format": "RGBA8",
"height": 16,
"mipmaps": false,
"width": 16
}

[sub_resource type="ImageTexture" id=2]
flags = 0
flags = 0
image = SubResource( 3 )
size = Vector2( 16, 16 )

[sub_resource type="BoxShape" id=4]
extents = Vector3( 1.5, 1, 0.05 )

[node name="Godot_Classes" type="Spatial"]

[node name="Viewport" type="Viewport" parent="."]
size = Vector2( 200, 200 )

[node name="Panel" type="Panel" parent="Viewport"]
margin_right = 40.0
margin_bottom = 40.0

[node name="TextureRect" type="TextureRect" parent="Viewport/Panel"]
margin_right = 16.0
margin_bottom = 16.0
texture = SubResource( 2 )
__meta__ = {
"_edit_use_anchors_": false
}

[node name="Quad" type="MeshInstance" parent="."]

[node name="Area" type="Area" parent="Quad"]

[node name="CollisionShape" type="CollisionShape" parent="Quad/Area"]
shape = SubResource( 4 )
