[gd_scene load_steps=2 format=2]

[ext_resource path="res://core/quest/quest_system.gd" type="Script" id=1]



[node name="Quests" type="Control"]
anchor_right = 1.0
anchor_bottom = 1.0
script = ExtResource( 1 )
__meta__ = {
"_edit_use_anchors_": false
}
all = {
"lba": "Little Big Adventure"
}
