<?xml version="1.0" standalone="no"?>
<svg viewBox="0 0 60 60" xmlns="http://www.w3.org/2000/svg">
	<defs>
		<radialGradient id="radial-gradient">
			<stop offset="90%" stop-color="green"/>
			<stop offset="100%" stop-color="white"/>
		</radialGradient>
	</defs>
	<circle cx="30" cy="30" r="30" fill="url(#radial-gradient)" opacity="0.7" />
</svg>