[gd_resource type="ShaderMaterial" load_steps=5 format=2]

[sub_resource type="VisualShaderNodeColorConstant" id=1]
constant = Color( 0.0452271, 0.890625, 0.771741, 1 )

[sub_resource type="VisualShaderNodeInput" id=2]
input_name = "vertex"

[sub_resource type="VisualShaderNodeVectorDistance" id=3]

[sub_resource type="VisualShader" id=4]
code = "shader_type spatial;
render_mode cull_disabled, specular_schlick_ggx;




void vertex() {
// Output:0

}

void fragment() {
// Input:3
	vec3 n_out3p0 = VERTEX;

// Output:0
	ALBEDO = n_out3p0;

}

void light() {
// Output:0

}
"
modes/cull = 2
nodes/fragment/2/node = SubResource( 1 )
nodes/fragment/2/position = Vector2( 122, 198.5 )
nodes/fragment/3/node = SubResource( 2 )
nodes/fragment/3/position = Vector2( -200, 240 )
nodes/fragment/4/node = SubResource( 3 )
nodes/fragment/4/position = Vector2( 4, 321.5 )
nodes/fragment/connections = PoolIntArray( 3, 0, 0, 0 )

[resource]
shader = SubResource( 4 )
