[gd_resource type="ShaderMaterial" load_steps=4 format=2]

[sub_resource type="Shader" id=1]
code = "shader_type spatial;
render_mode cull_disabled, ensure_correct_normals;

uniform sampler2D gradient: hint_black;
uniform float height_offset = 1000.0;
uniform float gradient_height = 2000.0;

varying float height;
//varying vec3 normal_col;

void vertex() {
	height = VERTEX.y;
	//normal_col = NORMAL;
	//NORMAL = normalize(vec3(k - height(pos + vec2(0.1, 0.0), TIME), 0.1, k - height(pos + vec2(0.0, 0.1), TIME)));
	//NORMAL = VERTEX;
}

void fragment() {
	//ALBEDO = vec3(0.0, 0.0, 0.0);
	//ALBEDO = vec3(VERTEX.y, VERTEX.y, VERTEX.y);
	/*for (int i = 0; i < 2; i++) {
		ALBEDO += vec3(VERTEX.y / 2.0);
	}*/
	//ALBEDO = normal_col;
	//ALBEDO = vec3(1.0, 5.0, 1.0);
	//float level = sqrt(height);
	/*if (height < 10.0) { // sand from 5m to -100m
		float sand = min(1.0, -(height - 5.0) / 100.0);
		ALBEDO += vec3(1.0 - sand, 1.0 - sand, 0.0);

		if (height < 1.0) { // water from 1m to -500m
			float water = min(1.0, -(height - 1.0) / 500.0);
			ALBEDO += vec3(0.0, 0.0, 1.0 - water);
		}
	} else if (height < 100.0) {
		float grass = min(1.0, (height - 10.0) / 20.0);
		ALBEDO += vec3(1.0 - grass, 1.0 - grass / 2.0, 0.0);
		if (height > 50.0) {
			ALBEDO.g -= height / 200.0;
		}
	} else {
		float snow = min(0.9, (height - 100.0) / 100.0);
		ALBEDO += vec3(snow);
		if (height > 300.0) {
			float ice = min(1.0, (height - 200.0) / 500.0);
			ALBEDO += vec3(0.0, 0.0, ice);
		}
	}*/
	/*if (height < -95.0) {
	}
		float a = -(height + 95.0) / 100.0;
		ALBEDO = vec3(1.0 - a, 1.0 - a, 2.0 - a);
		NORMALMAP = vec3(a);
	} else if (height < 0.0) {
		float a = -height / 50.0;
		ALBEDO = vec3(a, a, 0.0);
		NORMALMAP = vec3(a);
	} else {
	//} else if (height < 0.0)  {
		float a = height / 50.0;
		ALBEDO = vec3(1.0 - a, 2.0 - a, 1.0 - a);
		NORMALMAP = vec3(a);
	}/* else {
		float a = height / 10.0;
		ALBEDO = vec3(0.0, a, 0.0);
	}*/
	//ROUGHNESS = 0.1;
	//NORMALMAP = normal_col;
	//NORMALMAP = vec3(0.0, 0.1, 0.0);
	//NORMALMAP = vec3(height / 100.0);
	//NORMALMAP = vec3(UV, 0.1);
	
	ALBEDO = texture(gradient, vec2((height + height_offset) / gradient_height, 0.0)).rgb;
}"

[sub_resource type="Gradient" id=2]
offsets = PoolRealArray( 0, 0.5, 0.501, 0.55, 0.6, 0.7, 0.8, 0.9, 1 )
colors = PoolColorArray( 0.00561523, 0, 0.179688, 1, 0.302734, 0.313141, 0.96875, 1, 0.952941, 0.878431, 0.027451, 1, 0.0305214, 0.496094, 0.0155029, 1, 0.00683594, 0.21875, 0, 1, 0.414062, 0.333899, 0.0194092, 1, 0.328125, 0.316409, 0.270447, 1, 0.942584, 0.942584, 0.942584, 1, 0.753906, 1, 1, 1 )

[sub_resource type="GradientTexture" id=3]
gradient = SubResource( 2 )

[resource]
shader = SubResource( 1 )
shader_param/height_offset = 1000.0
shader_param/gradient_height = 2000.0
shader_param/gradient = SubResource( 3 )
