[gd_resource type="ShaderMaterial" load_steps=7 format=2]

[ext_resource path="res://assets/materials/terrain/Lava001/Lava001_1K_Color.jpg" type="Texture" id=1]
[ext_resource path="res://assets/materials/terrain/Snow002/Snow002_1K_Color.jpg" type="Texture" id=2]
[ext_resource path="res://assets/materials/terrain/Grass001/Grass001_1K_Color.jpg" type="Texture" id=3]
[ext_resource path="res://assets/materials/shaders/splatmap.shader" type="Shader" id=4]

[sub_resource type="OpenSimplexNoise" id=1]

[sub_resource type="NoiseTexture" id=2]
seamless = true
noise = SubResource( 1 )

[resource]
shader = ExtResource( 4 )
shader_param/base_res = 0.05
shader_param/r_res = 0.05
shader_param/g_res = 0.05
shader_param/b_res = 0.05
shader_param/a_res = 0.05
shader_param/splatmap = SubResource( 2 )
shader_param/tex_base = ExtResource( 3 )
shader_param/tex_r = ExtResource( 3 )
shader_param/tex_g = ExtResource( 3 )
shader_param/tex_b = ExtResource( 2 )
shader_param/tex_a = ExtResource( 1 )
