[gd_scene load_steps=4 format=2]

[ext_resource path="res://core/ui/stats/Stats.tscn" type="PackedScene" id=1]
[ext_resource path="res://core/ui/stats/PowerStats.gd" type="Script" id=2]

[sub_resource type="ViewportTexture" id=1]
viewport_path = NodePath("ViewportBars")

[node name="PowerStats" instance=ExtResource( 1 )]
script = ExtResource( 2 )
power = -1.0

[node name="SpriteBars" parent="." index="1"]
texture = SubResource( 1 )
