[gd_resource type="DynamicFont" load_steps=2 format=2]

[ext_resource path="res://assets/ui/fonts/Roboto-Regular.ttf" type="DynamicFontData" id=1]

[resource]
extra_spacing_top = 2
extra_spacing_bottom = 2
font_data = ExtResource( 1 )
